{
  "project_info": {
    "project_number": "175623774337",
    "project_id": "g2-4-aka",
    "storage_bucket": "g2-4-aka.appspot.com"
  },
  "client": [
    {
      "client_info": {
        "mobilesdk_app_id": "1:175623774337:android:16acb1fb5ab42fdf80ed80",
        "android_client_info": {
          "package_name": "com.example.authentaka"
        }
      },
      "oauth_client": [
        {
          "client_id": "175623774337-empsq4mc6kf46kqj12etuko9t5be6ub4.apps.googleusercontent.com",
          "client_type": 3
        }
      ],
      "api_key": [
        {
          "current_key": "AIzaSyBaFsFzkLr7PiD4z4MRKqyOVH-Ip22WCYQ"
        }
      ],
      "services": {
        "appinvite_service": {
          "other_platform_oauth_client": [
            {
              "client_id": "175623774337-empsq4mc6kf46kqj12etuko9t5be6ub4.apps.googleusercontent.com",
              "client_type": 3
            }
          ]
        }
      }
    }
  ],
  "configuration_version": "1"
}